<?xml version="1.0" encoding="UTF-8" standalone="no"?>
<!-- Created with Inkscape (http://www.inkscape.org/) -->

<svg
   width="205.55652mm"
   height="96.005669mm"
   viewBox="0 0 205.55652 96.005669"
   version="1.1"
   id="svg22614"
   sodipodi:docname="matks_overview.svg"
   inkscape:version="1.2.2 (b0a8486541, 2022-12-01)"
   inkscape:export-filename="matks_overview.png"
   inkscape:export-xdpi="150"
   inkscape:export-ydpi="150"
   xmlns:inkscape="http://www.inkscape.org/namespaces/inkscape"
   xmlns:sodipodi="http://sodipodi.sourceforge.net/DTD/sodipodi-0.dtd"
   xmlns="http://www.w3.org/2000/svg"
   xmlns:svg="http://www.w3.org/2000/svg">
  <sodipodi:namedview
     id="namedview22616"
     pagecolor="#ffffff"
     bordercolor="#666666"
     borderopacity="1.0"
     inkscape:showpageshadow="2"
     inkscape:pageopacity="0.0"
     inkscape:pagecheckerboard="0"
     inkscape:deskcolor="#d1d1d1"
     inkscape:document-units="mm"
     showgrid="true"
     inkscape:zoom="0.85611607"
     inkscape:cx="216.67623"
     inkscape:cy="105.12593"
     inkscape:window-width="2560"
     inkscape:window-height="1340"
     inkscape:window-x="2160"
     inkscape:window-y="1427"
     inkscape:window-maximized="1"
     inkscape:current-layer="layer1">
    <inkscape:grid
       type="xygrid"
       id="grid22781"
       originx="-39.333333"
       originy="-110.36934" />
  </sodipodi:namedview>
  <defs
     id="defs22611">
    <marker
       style="overflow:visible"
       id="marker23608"
       refX="0.5"
       refY="2"
       orient="auto"
       inkscape:stockid="Stop"
       markerWidth="1"
       markerHeight="2"
       viewBox="0 0 1 8"
       inkscape:isstock="true"
       inkscape:collect="always"
       preserveAspectRatio="none">
      <path
         style="fill:none;stroke:context-stroke;stroke-width:1"
         d="M 0,4 V -4"
         id="path23606" />
    </marker>
    <marker
       style="overflow:visible"
       id="Stop"
       refX="-0.5"
       refY="2"
       orient="auto"
       inkscape:stockid="Stop"
       markerWidth="1"
       markerHeight="2"
       viewBox="0 0 1 8"
       inkscape:isstock="true"
       inkscape:collect="always"
       preserveAspectRatio="none">
      <path
         style="fill:none;stroke:context-stroke;stroke-width:1"
         d="M 0,4 V -4"
         id="path171" />
    </marker>
    <marker
       style="overflow:visible"
       id="Stop-6"
       refX="-0.5"
       refY="2"
       orient="auto"
       inkscape:stockid="Stop"
       markerWidth="1"
       markerHeight="2"
       viewBox="0 0 1 8"
       inkscape:isstock="true"
       inkscape:collect="always"
       preserveAspectRatio="none">
      <path
         style="fill:none;stroke:context-stroke;stroke-width:1"
         d="M 0,4 V -4"
         id="path171-2" />
    </marker>
    <marker
       style="overflow:visible"
       id="marker23608-6"
       refX="0.5"
       refY="2"
       orient="auto"
       inkscape:stockid="Stop"
       markerWidth="1"
       markerHeight="2"
       viewBox="0 0 1 8"
       inkscape:isstock="true"
       inkscape:collect="always"
       preserveAspectRatio="none">
      <path
         style="fill:none;stroke:context-stroke;stroke-width:1"
         d="M 0,4 V -4"
         id="path23606-1" />
    </marker>
    <marker
       style="overflow:visible"
       id="Stop-6-2"
       refX="-0.5"
       refY="2"
       orient="auto"
       inkscape:stockid="Stop"
       markerWidth="1"
       markerHeight="2"
       viewBox="0 0 1 8"
       inkscape:isstock="true"
       inkscape:collect="always"
       preserveAspectRatio="none">
      <path
         style="fill:none;stroke:context-stroke;stroke-width:1"
         d="M 0,4 V -4"
         id="path171-2-3" />
    </marker>
    <marker
       style="overflow:visible"
       id="marker23608-6-7"
       refX="0.5"
       refY="2"
       orient="auto"
       inkscape:stockid="Stop"
       markerWidth="1"
       markerHeight="2"
       viewBox="0 0 1 8"
       inkscape:isstock="true"
       inkscape:collect="always"
       preserveAspectRatio="none">
      <path
         style="fill:none;stroke:context-stroke;stroke-width:1"
         d="M 0,4 V -4"
         id="path23606-1-5" />
    </marker>
    <marker
       style="overflow:visible"
       id="Stop-8"
       refX="-0.5"
       refY="2"
       orient="auto"
       inkscape:stockid="Stop"
       markerWidth="1"
       markerHeight="2"
       viewBox="0 0 1 8"
       inkscape:isstock="true"
       inkscape:collect="always"
       preserveAspectRatio="none">
      <path
         style="fill:none;stroke:context-stroke;stroke-width:1"
         d="M 0,4 V -4"
         id="path171-9" />
    </marker>
    <marker
       style="overflow:visible"
       id="marker23608-7"
       refX="0.5"
       refY="2"
       orient="auto"
       inkscape:stockid="Stop"
       markerWidth="1"
       markerHeight="2"
       viewBox="0 0 1 8"
       inkscape:isstock="true"
       inkscape:collect="always"
       preserveAspectRatio="none">
      <path
         style="fill:none;stroke:context-stroke;stroke-width:1"
         d="M 0,4 V -4"
         id="path23606-3" />
    </marker>
    <marker
       style="overflow:visible"
       id="Stop-3"
       refX="-0.5"
       refY="-2"
       orient="auto"
       inkscape:stockid="Stop"
       markerWidth="1"
       markerHeight="2"
       viewBox="0 0 1 8"
       inkscape:isstock="true"
       inkscape:collect="always"
       preserveAspectRatio="none">
      <path
         style="fill:none;stroke:context-stroke;stroke-width:1"
         d="M 0,4 V -4"
         id="path171-1" />
    </marker>
    <marker
       style="overflow:visible"
       id="marker23608-9"
       refX="0.5"
       refY="-2"
       orient="auto"
       inkscape:stockid="Stop"
       markerWidth="1"
       markerHeight="2"
       viewBox="0 0 1 8"
       inkscape:isstock="true"
       inkscape:collect="always"
       preserveAspectRatio="none">
      <path
         style="fill:none;stroke:context-stroke;stroke-width:1"
         d="M 0,4 V -4"
         id="path23606-4" />
    </marker>
  </defs>
  <g
     inkscape:label="Layer 1"
     inkscape:groupmode="layer"
     id="layer1"
     transform="translate(-39.333336,-110.36935)">
    <rect
       style="opacity:0.946025;fill:#ffcaa8;fill-opacity:1;stroke-width:1.02762;stroke-linejoin:round;stop-color:#000000"
       id="rect2573-6"
       width="130.96875"
       height="21.166674"
       x="76.729156"
       y="142.875"
       rx="2.6927149"
       ry="2.6458333" />
    <rect
       style="opacity:0.946025;fill:#ffcaa8;fill-opacity:1;stroke-width:1.46424;stroke-linejoin:round;stop-color:#000000"
       id="rect2573-0"
       width="88.635406"
       height="63.500019"
       x="74.083336"
       y="142.875"
       rx="2.6458333"
       ry="2.7021232" />
    <rect
       style="opacity:0.946025;fill:#caccdc;fill-opacity:1;stroke-width:0.938446;stroke-linejoin:round;stop-color:#000000"
       id="rect2571"
       width="41.010426"
       height="39.6875"
       x="120.38541"
       y="165.36458"
       rx="2.5550721"
       ry="2.4804711" />
    <rect
       style="opacity:0.946025;fill:#caccdc;fill-opacity:1;stroke-width:0.778888;stroke-linejoin:round;stop-color:#000000"
       id="rect2573"
       width="85.989586"
       height="18.520834"
       x="75.40625"
       y="186.53125"
       rx="2.6458426"
       ry="2.6458433" />
    <rect
       style="opacity:0.946025;fill:#caccdc;fill-opacity:1;stroke-width:0.778888;stroke-linejoin:round;stop-color:#000000"
       id="rect2573-3"
       width="85.989601"
       height="18.520834"
       x="120.38541"
       y="165.36459"
       rx="2.6458323"
       ry="2.4694469" />
    <rect
       style="opacity:0.946025;fill:#cfd8d1;fill-opacity:1;stroke-width:0.659781;stroke-linejoin:round;stop-color:#000000"
       id="rect236-3-1-06-1"
       width="38.438663"
       height="15.875003"
       x="76.729164"
       y="166.6875"
       rx="2.7199147"
       ry="2.6458359" />
    <text
       xml:space="preserve"
       style="font-size:6.35px;line-height:1.25;font-family:'CMU Sans Serif';-inkscape-font-specification:'CMU Sans Serif';letter-spacing:0px;word-spacing:0px;stroke-width:0.264583"
       x="80.91806"
       y="176.84433"
       id="text292-6-2-2-8"><tspan
         sodipodi:role="line"
         id="tspan290-7-7-6-7"
         style="font-style:normal;font-variant:normal;font-weight:bold;font-stretch:normal;font-family:'CMU Sans Serif';-inkscape-font-specification:'CMU Sans Serif Bold';stroke-width:0.264583"
         x="80.91806"
         y="176.84433">Controlers</tspan></text>
    <rect
       style="opacity:0.946025;fill:#cfd8d1;fill-opacity:1;stroke-width:0.659781;stroke-linejoin:round;stop-color:#000000"
       id="rect236-3-1-06-1-6"
       width="38.438663"
       height="15.875003"
       x="121.70834"
       y="166.6875"
       rx="2.7199147"
       ry="2.6458359" />
    <text
       xml:space="preserve"
       style="font-size:6.35px;line-height:1.25;font-family:'CMU Sans Serif';-inkscape-font-specification:'CMU Sans Serif';letter-spacing:0px;word-spacing:0px;stroke-width:0.264583"
       x="130.47874"
       y="176.88243"
       id="text292-6-2-2-8-8"><tspan
         sodipodi:role="line"
         id="tspan290-7-7-6-7-9"
         style="font-style:normal;font-variant:normal;font-weight:bold;font-stretch:normal;font-family:'CMU Sans Serif';-inkscape-font-specification:'CMU Sans Serif Bold';stroke-width:0.264583"
         x="130.47874"
         y="176.88243">Drivers</tspan></text>
    <rect
       style="opacity:0.946025;fill:#a6b5a8;fill-opacity:1;stroke-width:0.659781;stroke-linejoin:round;stop-color:#000000"
       id="rect236-3-1-06-1-9"
       width="38.438663"
       height="15.875003"
       x="76.729164"
       y="145.52083"
       rx="2.7199147"
       ry="2.6458359" />
    <text
       xml:space="preserve"
       style="font-size:6.35px;line-height:1.25;font-family:'CMU Sans Serif';-inkscape-font-specification:'CMU Sans Serif';text-align:center;letter-spacing:0px;word-spacing:0px;text-anchor:middle;stroke-width:0.264583"
       x="97.151825"
       y="151.74699"
       id="text292-6-2-2-8-2"><tspan
         sodipodi:role="line"
         id="tspan290-7-7-6-7-0"
         style="font-style:normal;font-variant:normal;font-weight:bold;font-stretch:normal;font-family:'CMU Sans Serif';-inkscape-font-specification:'CMU Sans Serif Bold';text-align:center;text-anchor:middle;stroke-width:0.264583"
         x="97.151825"
         y="151.74699">Motion</tspan><tspan
         sodipodi:role="line"
         style="font-style:normal;font-variant:normal;font-weight:bold;font-stretch:normal;font-family:'CMU Sans Serif';-inkscape-font-specification:'CMU Sans Serif Bold';text-align:center;text-anchor:middle;stroke-width:0.264583"
         x="97.151825"
         y="159.68449"
         id="tspan23013">Planners</tspan></text>
    <rect
       style="opacity:0.946025;fill:#7c937f;fill-opacity:1;stroke-width:0.659781;stroke-linejoin:round;stop-color:#000000"
       id="rect236-3-1-06-1-9-4"
       width="38.438663"
       height="15.875003"
       x="121.70834"
       y="124.35416"
       rx="2.7199147"
       ry="2.6458359" />
    <text
       xml:space="preserve"
       style="font-size:6.35px;line-height:1.25;font-family:'CMU Sans Serif';-inkscape-font-specification:'CMU Sans Serif';letter-spacing:0px;word-spacing:0px;stroke-width:0.264583"
       x="128.29117"
       y="134.5491"
       id="text292-6-2-2-8-2-9"><tspan
         sodipodi:role="line"
         id="tspan290-7-7-6-7-0-5"
         style="font-style:normal;font-variant:normal;font-weight:bold;font-stretch:normal;font-family:'CMU Sans Serif';-inkscape-font-specification:'CMU Sans Serif Bold';stroke-width:0.264583"
         x="128.29117"
         y="134.5491">Deciders</tspan></text>
    <text
       xml:space="preserve"
       style="font-size:6.35px;line-height:1.25;font-family:'CMU Sans Serif';-inkscape-font-specification:'CMU Sans Serif';letter-spacing:0px;word-spacing:0px;stroke-width:0.264583"
       x="108.36063"
       y="115.10857"
       id="text292-6-2-2-8-2-9-7-79"><tspan
         sodipodi:role="line"
         id="tspan290-7-7-6-7-0-5-1-20"
         style="font-style:normal;font-variant:normal;font-weight:bold;font-stretch:normal;font-family:'CMU Sans Serif';-inkscape-font-specification:'CMU Sans Serif Bold';stroke-width:0.264583"
         x="108.36063"
         y="115.10857">Agent</tspan></text>
    <text
       xml:space="preserve"
       style="font-size:6.35px;line-height:1.25;font-family:'CMU Sans Serif';-inkscape-font-specification:'CMU Sans Serif';letter-spacing:0px;word-spacing:0px;stroke-width:0.264583"
       x="39.022186"
       y="155.96446"
       id="text292-6-2-2-8-2-9-7-79-1"><tspan
         sodipodi:role="line"
         id="tspan290-7-7-6-7-0-5-1-20-29"
         style="font-style:normal;font-variant:normal;font-weight:bold;font-stretch:normal;font-family:'CMU Sans Serif';-inkscape-font-specification:'CMU Sans Serif Bold';stroke-width:0.264583"
         x="39.022186"
         y="155.96446">Software</tspan></text>
    <text
       xml:space="preserve"
       style="font-size:6.35px;line-height:1.25;font-family:'CMU Sans Serif';-inkscape-font-specification:'CMU Sans Serif';letter-spacing:0px;word-spacing:0px;stroke-width:0.264583"
       x="39.525967"
       y="198.29781"
       id="text292-6-2-2-8-2-9-7-79-1-6"><tspan
         sodipodi:role="line"
         id="tspan290-7-7-6-7-0-5-1-20-29-1"
         style="font-style:normal;font-variant:normal;font-weight:bold;font-stretch:normal;font-family:'CMU Sans Serif';-inkscape-font-specification:'CMU Sans Serif Bold';stroke-width:0.264583"
         x="39.525967"
         y="198.29781">Hardware</tspan></text>
    <rect
       style="opacity:0.946025;fill:#7c937f;fill-opacity:1;stroke-width:0.659781;stroke-linejoin:round;stop-color:#000000"
       id="rect236-3-1-06-1-9-4-0"
       width="38.438663"
       height="15.875003"
       x="76.729164"
       y="124.35416"
       rx="2.7199147"
       ry="2.6458359" />
    <text
       xml:space="preserve"
       style="font-size:6.35px;line-height:1.25;font-family:'CMU Sans Serif';-inkscape-font-specification:'CMU Sans Serif';letter-spacing:0px;word-spacing:0px;stroke-width:0.264583"
       x="95.742119"
       y="130.58038"
       id="text292-6-2-2-8-2-9-4"><tspan
         sodipodi:role="line"
         id="tspan290-7-7-6-7-0-5-8"
         style="font-style:normal;font-variant:normal;font-weight:bold;font-stretch:normal;font-family:'CMU Sans Serif';-inkscape-font-specification:'CMU Sans Serif Bold';text-align:center;text-anchor:middle;stroke-width:0.264583"
         x="95.742119"
         y="130.58038">Task</tspan><tspan
         sodipodi:role="line"
         style="font-style:normal;font-variant:normal;font-weight:bold;font-stretch:normal;font-family:'CMU Sans Serif';-inkscape-font-specification:'CMU Sans Serif Bold';text-align:center;text-anchor:middle;stroke-width:0.264583"
         x="95.742119"
         y="138.51788"
         id="tspan23015">Planners</tspan></text>
    <rect
       style="opacity:0.946025;fill:#a6b5a8;fill-opacity:1;stroke-width:0.659781;stroke-linejoin:round;stop-color:#000000"
       id="rect236-3-1-06-1-9-2"
       width="38.438663"
       height="15.875003"
       x="121.70834"
       y="145.52083"
       rx="2.7199147"
       ry="2.6458359" />
    <text
       xml:space="preserve"
       style="font-size:6.35px;line-height:1.25;font-family:'CMU Sans Serif';-inkscape-font-specification:'CMU Sans Serif';letter-spacing:0px;word-spacing:0px;stroke-width:0.264583"
       x="126.66874"
       y="155.62686"
       id="text292-6-2-2-8-2-6"><tspan
         sodipodi:role="line"
         id="tspan290-7-7-6-7-0-6"
         style="font-style:normal;font-variant:normal;font-weight:bold;font-stretch:normal;font-family:'CMU Sans Serif';-inkscape-font-specification:'CMU Sans Serif Bold';stroke-width:0.264583"
         x="126.66874"
         y="155.62686">Detectors</tspan></text>
    <path
       style="fill:none;stroke:#717171;stroke-width:2;stroke-linecap:butt;stroke-linejoin:miter;stroke-dasharray:none;stroke-opacity:1;marker-start:url(#Stop);marker-end:url(#marker23608)"
       d="M 69.760417,124.35417 V 182.5625"
       id="path23223" />
    <text
       xml:space="preserve"
       style="font-size:6.35px;line-height:1.25;font-family:'CMU Sans Serif';-inkscape-font-specification:'CMU Sans Serif';letter-spacing:0px;word-spacing:0px;stroke-width:0.264583"
       x="214.26381"
       y="128.93887"
       id="text292-6-2-2-8-2-9-7-78"><tspan
         sodipodi:role="line"
         id="tspan290-7-7-6-7-0-5-1-4"
         style="font-style:normal;font-variant:normal;font-weight:bold;font-stretch:normal;font-family:'CMU Sans Serif';-inkscape-font-specification:'CMU Sans Serif Bold';stroke-width:0.264583"
         x="214.26381"
         y="128.93887">High-Level</tspan></text>
    <text
       xml:space="preserve"
       style="font-size:6.35px;line-height:1.25;font-family:'CMU Sans Serif';-inkscape-font-specification:'CMU Sans Serif';letter-spacing:0px;word-spacing:0px;stroke-width:0.264583"
       x="214.3125"
       y="182.5625"
       id="text292-6-2-2-8-2-9-7-7-5"><tspan
         sodipodi:role="line"
         id="tspan290-7-7-6-7-0-5-1-2-0"
         style="font-style:normal;font-variant:normal;font-weight:bold;font-stretch:normal;font-family:'CMU Sans Serif';-inkscape-font-specification:'CMU Sans Serif Bold';stroke-width:0.264583"
         x="214.3125"
         y="182.5625">Low-Level</tspan></text>
    <path
       style="fill:none;stroke:#717171;stroke-width:2;stroke-linecap:butt;stroke-linejoin:miter;stroke-dasharray:none;stroke-opacity:1;marker-start:url(#Stop-3);marker-end:url(#marker23608-9)"
       d="M 212.02083,124.35417 V 182.5625"
       id="path23223-3" />
    <path
       style="fill:none;stroke:#717171;stroke-width:2;stroke-linecap:butt;stroke-linejoin:miter;stroke-dasharray:none;stroke-opacity:1;marker-start:url(#Stop-8);marker-end:url(#marker23608-7)"
       d="m 69.760418,187.85417 v 15.875"
       id="path23223-6"
       sodipodi:nodetypes="cc" />
    <path
       style="fill:none;stroke:#717171;stroke-width:2;stroke-linecap:butt;stroke-linejoin:miter;stroke-dasharray:none;stroke-opacity:1;marker-start:url(#Stop-6);marker-end:url(#marker23608-6)"
       d="M 160.07292,119.0625 H 76.729164"
       id="path23223-8"
       sodipodi:nodetypes="cc" />
    <text
       xml:space="preserve"
       style="font-size:6.35px;line-height:1.25;font-family:'CMU Sans Serif';-inkscape-font-specification:'CMU Sans Serif';letter-spacing:0px;word-spacing:0px;stroke-width:0.264583"
       x="171.66801"
       y="114.95405"
       id="text292-6-2-2-8-2-9-7-79-9"><tspan
         sodipodi:role="line"
         id="tspan290-7-7-6-7-0-5-1-20-2"
         style="font-style:normal;font-variant:normal;font-weight:bold;font-stretch:normal;font-family:'CMU Sans Serif';-inkscape-font-specification:'CMU Sans Serif Bold';stroke-width:0.264583"
         x="171.66801"
         y="114.95405">Simulators</tspan></text>
    <path
       style="fill:none;stroke:#717171;stroke-width:2;stroke-linecap:butt;stroke-linejoin:miter;stroke-dasharray:none;stroke-opacity:1;marker-start:url(#Stop-6-2);marker-end:url(#marker23608-6-7)"
       d="m 205.05208,119.0625 -39.83566,-1e-5"
       id="path23223-8-2"
       sodipodi:nodetypes="cc" />
    <rect
       style="opacity:0.946025;fill:#eef1ef;fill-opacity:1;stroke-width:0.659781;stroke-linejoin:round;stop-color:#000000"
       id="rect236-3-1-06-1-62"
       width="38.438663"
       height="15.875003"
       x="76.729164"
       y="187.85417"
       rx="2.7199147"
       ry="2.6458359" />
    <text
       xml:space="preserve"
       style="font-size:6.35px;line-height:1.25;font-family:'CMU Sans Serif';-inkscape-font-specification:'CMU Sans Serif';letter-spacing:0px;word-spacing:0px;stroke-width:0.264583"
       x="80.91806"
       y="198.011"
       id="text292-6-2-2-8-9"><tspan
         sodipodi:role="line"
         id="tspan290-7-7-6-7-1"
         style="font-style:normal;font-variant:normal;font-weight:bold;font-stretch:normal;font-family:'CMU Sans Serif';-inkscape-font-specification:'CMU Sans Serif Bold';stroke-width:0.264583"
         x="80.91806"
         y="198.011">Actuators</tspan></text>
    <rect
       style="opacity:0.946025;fill:#eef1ef;fill-opacity:1;stroke-width:0.659781;stroke-linejoin:round;stop-color:#000000"
       id="rect236-3-1-06-1-6-2"
       width="38.438663"
       height="15.875003"
       x="121.70834"
       y="187.85417"
       rx="2.7199147"
       ry="2.6458359" />
    <text
       xml:space="preserve"
       style="font-size:6.35px;line-height:1.25;font-family:'CMU Sans Serif';-inkscape-font-specification:'CMU Sans Serif';letter-spacing:0px;word-spacing:0px;stroke-width:0.264583"
       x="130.47874"
       y="198.0491"
       id="text292-6-2-2-8-8-7"><tspan
         sodipodi:role="line"
         id="tspan290-7-7-6-7-9-0"
         style="font-style:normal;font-variant:normal;font-weight:bold;font-stretch:normal;font-family:'CMU Sans Serif';-inkscape-font-specification:'CMU Sans Serif Bold';stroke-width:0.264583"
         x="130.47874"
         y="198.0491">Sensors</tspan></text>
    <rect
       style="opacity:1;fill:#ff6c0f;fill-opacity:1;stroke-width:0.659781;stroke-linejoin:round;stop-color:#000000"
       id="rect236-3-1-06-1-6-2-9-3"
       width="38.438663"
       height="15.875003"
       x="166.6875"
       y="145.52083"
       rx="2.7199147"
       ry="2.6458359" />
    <text
       xml:space="preserve"
       style="font-size:6.35px;line-height:1.25;font-family:'CMU Sans Serif';-inkscape-font-specification:'CMU Sans Serif';letter-spacing:0px;word-spacing:0px;stroke-width:0.264583"
       x="170.73042"
       y="155.71576"
       id="text670-6"><tspan
         sodipodi:role="line"
         id="tspan668-0"
         style="font-style:normal;font-variant:normal;font-weight:bold;font-stretch:normal;font-family:'CMU Sans Serif';-inkscape-font-specification:'CMU Sans Serif Bold';stroke-width:0.264583"
         x="170.73042"
         y="155.71576">matks</tspan></text>
    <g
       id="g15557"
       transform="translate(9.9999966e-7,-21.166662)">
      <rect
         style="opacity:0.946025;fill:#7077a1;fill-opacity:1;stroke-width:0.659781;stroke-linejoin:round;stop-color:#000000"
         id="rect236-3-1-06-1-6-2-9"
         width="38.438663"
         height="15.875003"
         x="166.6875"
         y="187.85417"
         rx="2.7199147"
         ry="2.6458359" />
      <text
         xml:space="preserve"
         style="font-size:6.35px;line-height:1.25;font-family:'CMU Sans Serif';-inkscape-font-specification:'CMU Sans Serif';letter-spacing:0px;word-spacing:0px;stroke-width:0.264583"
         x="170.83093"
         y="198.01418"
         id="text670"><tspan
           sodipodi:role="line"
           id="tspan668"
           style="font-style:normal;font-variant:normal;font-weight:bold;font-stretch:normal;font-family:'CMU Sans Serif';-inkscape-font-specification:'CMU Sans Serif Bold';stroke-width:0.264583"
           x="170.83093"
           y="198.01418">Gazebo</tspan></text>
      <g
         transform="matrix(0.05370501,0,0,0.05370501,186.12393,182.88668)"
         id="g6387">
        <path
           inkscape:connector-curvature="0"
           id="path4004"
           d="m 164.74024,205.99021 1.89902,67.41531 59.81923,38.92997 0.94951,-34.65717 35.13192,-19.46498 z"
           style="fill:#ffffff;fill-opacity:1;stroke:#000000;stroke-width:1px;stroke-linecap:butt;stroke-linejoin:miter;stroke-opacity:1" />
        <path
           d="m 222.38424,244.55563 2.02975,1.25975 c 0.72813,0.45312 1.55275,0.67775 2.38038,0.67775 0.82574,0 1.65337,-0.22463 2.38337,-0.68113 l 2.03225,-1.26463 20.60538,12.75975 -27.51213,17.13288 c -1.32725,0.82362 -2.13288,2.27775 -2.1265,3.84512 l 0.0805,28.07713 -49.7045,-30.86425 z m -54.03223,-33.54926 45.47998,28.23975 -45.47998,28.23825 z m 125.63548,28.14788 c -0.004,-1.63325 -0.8925,-3.13962 -2.32625,-3.933 -1.43,-0.792 -3.17875,-0.74712 -4.5675,0.11712 l -26.73338,16.648 -20.60312,-12.75887 52.209,-32.51463 c 1.325,-0.82512 2.13125,-2.27537 2.13125,-3.83637 -0.004,-1.55763 -0.8125,-3.00838 -2.1375,-3.82963 l -62.79113,-38.88062 c -1.4575,-0.90375 -3.29824,-0.90125 -4.75487,0.002 l -62.79292,38.99137 c -1.3252,0.82175 -2.13233,2.272 -2.13233,3.83301 0,0.40574 0,72.09862 0,72.50487 0,1.56062 0.80713,3.01025 2.13233,3.8345 l 62.79292,38.98977 c 0.0307,0.019 0.0625,0.0303 0.0929,0.0478 0.0346,0.0186 0.0634,0.0449 0.0991,0.0659 0.0708,0.0376 0.1455,0.0664 0.21963,0.10254 0.0732,0.0376 0.14499,0.0737 0.22224,0.10645 0.11713,0.0474 0.23676,0.0889 0.35638,0.125 0.0709,0.0249 0.13925,0.0513 0.2115,0.0688 0.13425,0.041 0.27187,0.0625 0.40863,0.0884 0.0571,0.0117 0.11724,0.0254 0.17574,0.0288 0.19688,0.0303 0.3955,0.0439 0.59238,0.0439 v 0 c 0,0 0.001,0 0.002,0 0.40926,0 0.82188,-0.0576 1.21825,-0.16748 0.004,-0.004 0.006,-0.004 0.006,-0.004 0.15387,-0.041 0.30525,-0.10254 0.45412,-0.16113 0.0449,-0.0186 0.0927,-0.0298 0.13676,-0.0474 0.126,-0.0552 0.24262,-0.12891 0.36225,-0.19532 0.066,-0.0361 0.13574,-0.0649 0.20074,-0.10253 l 0.002,-0.003 c 0.003,0 0.003,0 0.003,0 l 0.12062,-0.0762 62.66538,-38.91018 c 1.33125,-0.82762 2.13625,-2.28175 2.13375,-3.84912 l -0.11,-36.32913"
           id="path3115"
           style="fill:#231f20;fill-opacity:1;fill-rule:nonzero;stroke:none"
           inkscape:connector-curvature="0" />
        <path
           d="m 231.20499,280.76812 0.0772,25.623 53.784,-33.398 -0.075,-25.71625 -53.78625,33.49125"
           id="path3117"
           style="fill:#ffffff;fill-opacity:1;fill-rule:nonzero;stroke:none"
           inkscape:connector-curvature="0" />
        <path
           d="m 172.55274,202.99313 54.23975,33.67824 54.23925,-33.77687 -54.23437,-33.58575 -54.24463,33.68438"
           id="path3119"
           style="fill:#f58113;fill-opacity:1;fill-rule:nonzero;stroke:none"
           inkscape:connector-curvature="0" />
      </g>
    </g>
    <g
       id="g15155"
       transform="matrix(0.06284461,0,0,0.06284461,186.09835,139.34181)">
      <g
         id="g2598"
         transform="matrix(1.0972394,0,0,1.0972394,-130.38795,28.204629)"
         style="stroke-width:0.911377">
        <path
           style="fill:none;fill-opacity:1;stroke:#a8d8f7;stroke-width:2.73415;stroke-linecap:butt;stroke-linejoin:miter;stroke-miterlimit:4;stroke-dasharray:none;stroke-opacity:1"
           d="m 226.28883,104.68494 11.73173,11.73173 h 21.27111"
           id="path5528" />
        <path
           style="fill:none;fill-opacity:1;stroke:#a8d8f7;stroke-width:2.73415;stroke-linecap:butt;stroke-linejoin:miter;stroke-miterlimit:4;stroke-dasharray:none;stroke-opacity:1"
           d="m 366.49978,104.68494 -11.73173,11.73173 h -21.27111"
           id="path5528-6" />
        <path
           style="fill:none;fill-opacity:1;stroke:#a8d8f7;stroke-width:2.73415;stroke-linecap:butt;stroke-linejoin:miter;stroke-miterlimit:4;stroke-dasharray:none;stroke-opacity:1"
           d="M 366.49978,183.80236 354.76805,172.07061 H 333.49694"
           id="path5528-6-2" />
        <path
           style="fill:none;fill-opacity:1;stroke:#a8d8f7;stroke-width:2.73415;stroke-linecap:butt;stroke-linejoin:miter;stroke-miterlimit:4;stroke-dasharray:none;stroke-opacity:1"
           d="m 226.28881,183.80236 11.73174,-11.73175 h 21.27112"
           id="path5528-6-2-6" />
        <ellipse
           style="fill:#a8d8f7;fill-opacity:1;stroke:#a8d8f7;stroke-width:5.46828;stroke-linecap:round;stroke-linejoin:round;stroke-opacity:1;paint-order:stroke fill markers;stop-color:#000000"
           id="path4087-9"
           cx="363.17905"
           cy="105.28587"
           rx="5.7979307"
           ry="6.1279621" />
        <path
           style="fill:none;fill-opacity:1;stroke:#a8d8f7;stroke-width:2.73415;stroke-linecap:butt;stroke-linejoin:miter;stroke-miterlimit:4;stroke-dasharray:none;stroke-opacity:1"
           d="M 218.47878,146.09877 H 374.30983"
           id="path6028" />
        <path
           id="path3539"
           style="fill:#a8d8f7;fill-opacity:1;stroke:#a8d8f7;stroke-width:5.46828;stroke-linecap:round;stroke-linejoin:round;stroke-opacity:1;paint-order:stroke fill markers;stop-color:#000000"
           d="m 351.36591,145.41643 c 0,20.03103 -21.57923,37.78497 -28.99976,48.91576 -7.42052,11.13079 -15.96706,25.38125 -26.29601,25.38125 -9.10039,0 -18.22715,-14.25046 -25.64767,-25.38125 -7.42053,-11.13079 -28.99976,-27.65618 -28.99976,-48.91576 0,-30.35998 24.61163,-54.971604 54.97159,-54.971607 30.35998,-6e-6 54.97161,24.611617 54.97161,54.971607 z"
           sodipodi:nodetypes="szszsss" />
        <circle
           style="fill:#a8d8f7;fill-opacity:1;stroke:#a8d8f7;stroke-width:5.46828;stroke-linecap:round;stroke-linejoin:round;stroke-opacity:1;paint-order:stroke fill markers;stop-color:#000000"
           id="path3983"
           cx="295.53784"
           cy="250.47099"
           r="12.026527" />
        <rect
           style="fill:#a8d8f7;fill-opacity:1;stroke:#a8d8f7;stroke-width:5.46828;stroke-linecap:round;stroke-linejoin:round;stroke-opacity:1;paint-order:stroke fill markers;stop-color:#000000"
           id="rect3643"
           width="55.671665"
           height="17.666126"
           x="268.55847"
           y="207.76073"
           rx="5.7793479"
           ry="5.9114323" />
        <rect
           style="fill:#a8d8f7;fill-opacity:1;stroke:#a8d8f7;stroke-width:5.46828;stroke-linecap:round;stroke-linejoin:round;stroke-opacity:1;paint-order:stroke fill markers;stop-color:#000000"
           id="rect3643-6"
           width="55.671665"
           height="17.666126"
           x="268.55847"
           y="230.02229"
           rx="5.7793479"
           ry="5.9114323" />
        <ellipse
           style="fill:#a8d8f7;fill-opacity:1;stroke:#a8d8f7;stroke-width:5.46828;stroke-linecap:round;stroke-linejoin:round;stroke-opacity:1;paint-order:stroke fill markers;stop-color:#000000"
           id="path4087"
           cx="229.60957"
           cy="105.28587"
           rx="5.7979307"
           ry="6.1279621" />
        <ellipse
           style="fill:#a8d8f7;fill-opacity:1;stroke:#a8d8f7;stroke-width:5.46828;stroke-linecap:round;stroke-linejoin:round;stroke-opacity:1;paint-order:stroke fill markers;stop-color:#000000"
           id="path4087-1"
           cx="214.76851"
           cy="146.09877"
           rx="5.7979307"
           ry="6.1279621" />
        <ellipse
           style="fill:#a8d8f7;fill-opacity:1;stroke:#a8d8f7;stroke-width:5.46828;stroke-linecap:round;stroke-linejoin:round;stroke-opacity:1;paint-order:stroke fill markers;stop-color:#000000"
           id="path4087-2"
           cx="225.89929"
           cy="183.2014"
           rx="5.7979307"
           ry="6.1279621" />
        <ellipse
           style="fill:#a8d8f7;fill-opacity:1;stroke:#a8d8f7;stroke-width:5.46828;stroke-linecap:round;stroke-linejoin:round;stroke-opacity:1;paint-order:stroke fill markers;stop-color:#000000"
           id="path4087-7"
           cx="363.17905"
           cy="183.2014"
           rx="5.7979307"
           ry="6.1279621" />
        <ellipse
           style="fill:#a8d8f7;fill-opacity:1;stroke:#a8d8f7;stroke-width:5.46828;stroke-linecap:round;stroke-linejoin:round;stroke-opacity:1;paint-order:stroke fill markers;stop-color:#000000"
           id="path4087-0"
           cx="378.02005"
           cy="146.09877"
           rx="5.7979307"
           ry="6.1279621" />
      </g>
      <path
         style="fill:none;stroke:#000000;stroke-width:3;stroke-linecap:butt;stroke-linejoin:miter;stroke-miterlimit:4;stroke-dasharray:none;stroke-opacity:1"
         d="m 122.26046,214.15879 -2.64583,-26.45834"
         id="path1402" />
      <path
         style="fill:none;stroke:#000000;stroke-width:3;stroke-linecap:butt;stroke-linejoin:miter;stroke-miterlimit:4;stroke-dasharray:none;stroke-opacity:1"
         d="m 124.9063,166.53379 23.8125,-21.16667"
         id="path1404"
         sodipodi:nodetypes="cc" />
      <path
         style="fill:none;stroke:#000000;stroke-width:3;stroke-linecap:butt;stroke-linejoin:miter;stroke-miterlimit:4;stroke-dasharray:none;stroke-opacity:1"
         d="m 169.88546,137.42962 68.79167,10.58334"
         id="path1406" />
      <path
         style="fill:none;stroke:#000000;stroke-width:3;stroke-linecap:butt;stroke-linejoin:miter;stroke-miterlimit:4;stroke-dasharray:none;stroke-opacity:1"
         d="m 254.55213,163.88796 18.52083,52.91666"
         id="path1408"
         sodipodi:nodetypes="cc" />
      <path
         style="fill:none;stroke:#000000;stroke-width:3;stroke-linecap:butt;stroke-linejoin:miter;stroke-miterlimit:4;stroke-dasharray:none;stroke-opacity:1"
         d="M 265.13546,230.0338 196.3438,203.57545"
         id="path1410" />
      <path
         style="fill:none;stroke:#000000;stroke-width:3;stroke-linecap:butt;stroke-linejoin:miter;stroke-miterlimit:4;stroke-dasharray:none;stroke-opacity:1"
         d="m 132.8438,222.0963 63.5,-18.52085"
         id="path1412" />
      <path
         style="fill:none;stroke:#000000;stroke-width:3;stroke-linecap:butt;stroke-linejoin:miter;stroke-miterlimit:4;stroke-dasharray:none;stroke-opacity:1"
         d="m 161.94796,148.01296 34.39584,55.56249"
         id="path1414" />
      <path
         id="rect1536"
         style="fill:#a8d8f7;fill-opacity:1;stroke:none;stroke-width:3;stroke-linecap:round;stroke-linejoin:round;paint-order:stroke fill markers;stop-color:#000000"
         d="m 160.62505,192.99212 c 21.9727,-15.72513 44.07841,-3.89699 66.14583,0 2.16519,0.38236 3.96875,1.77006 3.96875,3.96875 v 21.16668 c 0,2.19868 -1.77006,3.96875 -3.96875,3.96875 h -66.14583 c -2.19869,0 -3.96875,-1.77007 -3.96875,-3.96875 v -21.16668 c 0,-2.19869 2.18077,-2.68915 3.96875,-3.96875 z"
         sodipodi:nodetypes="sssssssss" />
      <g
         id="g14"
         transform="matrix(0.32934052,0,0,0.32934052,117.57783,165.70458)"
         style="stroke-width:0.803371">
        <path
           d="m 167,142 c 4.142,0 7.5,-3.358 7.5,-7.5 v -8 c 0,-4.142 -3.358,-7.5 -7.5,-7.5 -4.142,0 -7.5,3.358 -7.5,7.5 v 8 c 0,4.142 3.357,7.5 7.5,7.5 z"
           id="path2"
           style="stroke-width:0.803371" />
        <path
           d="m 295,142 c 4.142,0 7.5,-3.358 7.5,-7.5 v -8 c 0,-4.142 -3.358,-7.5 -7.5,-7.5 -4.142,0 -7.5,3.358 -7.5,7.5 v 8 c 0,4.142 3.357,7.5 7.5,7.5 z"
           id="path4"
           style="stroke-width:0.803371" />
        <path
           d="m 382.5,336.234 v -67.468 c 9.29,-3.138 16,-11.93 16,-22.266 0,-12.958 -10.542,-23.5 -23.5,-23.5 h -34.11 c 10.826,-10.135 17.61,-24.536 17.61,-40.5 v -80 C 358.5,71.897 333.603,47 303,47 H 278.5 V 26.886 c 4.188,-2.546 7,-7.138 7,-12.386 C 285.5,6.505 278.995,0 271,0 c -7.995,0 -14.5,6.505 -14.5,14.5 0,5.248 2.812,9.84 7,12.386 V 47 h -65 V 26.886 c 4.188,-2.546 7,-7.138 7,-12.386 C 205.5,6.505 198.995,0 191,0 c -7.995,0 -14.5,6.505 -14.5,14.5 0,5.248 2.812,9.84 7,12.386 V 47 H 159 c -30.603,0 -55.5,24.897 -55.5,55.5 v 80 c 0,15.964 6.784,30.365 17.61,40.5 H 87 c -12.958,0 -23.5,10.542 -23.5,23.5 0,10.336 6.71,19.128 16,22.266 v 67.468 c -9.29,3.138 -16,11.93 -16,22.266 v 16 c 0,4.142 3.358,7.5 7.5,7.5 4.142,0 7.5,-3.358 7.5,-7.5 v -16 c 0,-4.687 3.813,-8.5 8.5,-8.5 4.687,0 8.5,3.813 8.5,8.5 v 16 c 0,4.142 3.358,7.5 7.5,7.5 4.142,0 7.5,-3.358 7.5,-7.5 v -16 c 0,-10.336 -6.71,-19.128 -16,-22.266 V 270 h 33 v 72.5 c 0,12.958 10.542,23.5 23.5,23.5 h 9.409 c 1.245,5.075 3.72,9.669 7.093,13.449 0,0.017 -0.003,0.034 -0.003,0.051 V 415 H 159 c -21.78,0 -39.5,17.72 -39.5,39.5 0,4.142 3.358,7.5 7.5,7.5 h 88 c 4.142,0 7.5,-3.358 7.5,-7.5 v -32 c 0,-4.142 -3.358,-7.5 -7.5,-7.5 h -0.5 v -35.5 c 0,-0.017 -0.002,-0.034 -0.003,-0.051 3.374,-3.78 5.849,-8.375 7.093,-13.449 h 18.819 c 1.245,5.075 3.72,9.669 7.093,13.449 0,0.017 -0.003,0.034 -0.003,0.051 V 415 H 247 c -4.142,0 -7.5,3.358 -7.5,7.5 v 32 c 0,4.142 3.358,7.5 7.5,7.5 h 88 c 4.142,0 7.5,-3.358 7.5,-7.5 0,-21.78 -17.72,-39.5 -39.5,-39.5 h -8.5 v -35.5 c 0,-0.017 -0.002,-0.034 -0.003,-0.051 3.374,-3.78 5.849,-8.375 7.093,-13.449 H 311 c 12.958,0 23.5,-10.542 23.5,-23.5 V 270 h 33 v 66.234 c -9.29,3.138 -16,11.93 -16,22.266 v 16 c 0,4.142 3.358,7.5 7.5,7.5 4.142,0 7.5,-3.358 7.5,-7.5 v -16 c 0,-4.687 3.813,-8.5 8.5,-8.5 4.687,0 8.5,3.813 8.5,8.5 v 16 c 0,4.142 3.358,7.5 7.5,7.5 4.142,0 7.5,-3.358 7.5,-7.5 v -16 c 0,-10.336 -6.71,-19.128 -16,-22.266 z M 375,255 c -4.687,0 -8.5,-3.813 -8.5,-8.5 0,-4.687 3.813,-8.5 8.5,-8.5 4.687,0 8.5,3.813 8.5,8.5 0,4.687 -3.813,8.5 -8.5,8.5 z M 118.5,102.5 C 118.5,80.168 136.668,62 159,62 h 144 c 22.332,0 40.5,18.168 40.5,40.5 v 48 c 0,8.239 -16.171,16.553 -30.019,21.169 C 291.56,178.976 262.268,183 231,183 199.732,183 170.439,178.976 148.519,171.669 134.671,167.053 118.5,158.739 118.5,150.5 Z m 0,80 v -8.518 c 5.971,4.143 14.148,8.208 25.275,11.918 23.41,7.803 54.387,12.1 87.225,12.1 32.838,0 63.815,-4.297 87.225,-12.101 11.128,-3.709 19.304,-7.775 25.275,-11.918 v 8.518 c 0,22.332 -18.168,40.5 -40.5,40.5 H 159 C 136.668,223 118.5,204.832 118.5,182.5 Z M 87,238 c 4.687,0 8.5,3.813 8.5,8.5 0,4.687 -3.813,8.5 -8.5,8.5 -4.687,0 -8.5,-3.813 -8.5,-8.5 0,-4.687 3.813,-8.5 8.5,-8.5 z m 21.903,17 c 1.027,-2.638 1.597,-5.503 1.597,-8.5 0,-2.997 -0.57,-5.862 -1.597,-8.5 H 127.5 v 17 z M 207.5,447 h -71.826 c 3.175,-9.853 12.432,-17 23.326,-17 h 48.5 z m -25,-32 v -26.175 c 2.706,0.76 5.555,1.175 8.5,1.175 2.945,0 5.794,-0.415 8.5,-1.175 V 415 Z m 8.5,-40 c -6.396,0 -11.942,-3.666 -14.679,-9 h 29.357 c -2.737,5.334 -8.282,9 -14.678,9 z m 135.326,72 H 254.5 V 430 H 303 c 10.894,0 20.151,7.147 23.326,17 z M 262.5,415 v -26.175 c 2.706,0.76 5.555,1.175 8.5,1.175 2.945,0 5.794,-0.415 8.5,-1.175 V 415 Z m 8.5,-40 c -6.396,0 -11.942,-3.666 -14.679,-9 h 29.357 c -2.737,5.334 -8.282,9 -14.678,9 z m 48.5,-32.5 c 0,4.687 -3.813,8.5 -8.5,8.5 H 151 c -4.687,0 -8.5,-3.813 -8.5,-8.5 V 235.496 c 5.215,1.627 10.757,2.504 16.5,2.504 h 144 c 5.743,0 11.286,-0.877 16.5,-2.504 z m 15,-104.5 h 18.597 c -1.027,2.638 -1.597,5.503 -1.597,8.5 0,2.997 0.57,5.862 1.597,8.5 H 334.5 Z"
           id="path6"
           style="stroke-width:0.803371" />
        <path
           d="m 231,263 c -17.369,0 -31.5,14.131 -31.5,31.5 0,17.369 14.13,31.5 31.5,31.5 17.37,0 31.5,-14.131 31.5,-31.5 0,-17.369 -14.131,-31.5 -31.5,-31.5 z m 0,48 c -9.098,0 -16.5,-7.402 -16.5,-16.5 0,-9.098 7.401,-16.5 16.5,-16.5 9.099,0 16.5,7.402 16.5,16.5 0,9.098 -7.402,16.5 -16.5,16.5 z"
           id="path8"
           style="stroke-width:0.803371" />
        <path
           d="m 175,271 c -4.142,0 -7.5,3.358 -7.5,7.5 v 32 c 0,4.142 3.358,7.5 7.5,7.5 4.142,0 7.5,-3.358 7.5,-7.5 v -32 c 0,-4.142 -3.358,-7.5 -7.5,-7.5 z"
           id="path10"
           style="stroke-width:0.803371" />
        <path
           d="m 287,271 c -4.142,0 -7.5,3.358 -7.5,7.5 v 32 c 0,4.142 3.358,7.5 7.5,7.5 4.142,0 7.5,-3.358 7.5,-7.5 v -32 c 0,-4.142 -3.358,-7.5 -7.5,-7.5 z"
           id="path12"
           style="stroke-width:0.803371" />
      </g>
      <circle
         style="fill:#f4cf86;fill-opacity:1;stroke:#2b0000;stroke-width:6;stroke-linecap:round;stroke-linejoin:round;stroke-miterlimit:4;stroke-dasharray:none;stroke-opacity:1;paint-order:stroke fill markers;stop-color:#000000"
         id="path1144-9"
         cx="157.39374"
         cy="136.76622"
         r="11.90625" />
      <circle
         style="fill:#f4cf86;fill-opacity:1;stroke:#2b0000;stroke-width:6;stroke-linecap:round;stroke-linejoin:round;stroke-miterlimit:4;stroke-dasharray:none;stroke-opacity:1;paint-order:stroke fill markers;stop-color:#000000"
         id="path1144-6"
         cx="276.45627"
         cy="226.72453"
         r="11.90625" />
      <circle
         style="fill:#f4cf86;fill-opacity:1;stroke:#2b0000;stroke-width:6;stroke-linecap:round;stroke-linejoin:round;stroke-miterlimit:4;stroke-dasharray:none;stroke-opacity:1;paint-order:stroke fill markers;stop-color:#000000"
         id="path1144-0"
         cx="122.9979"
         cy="226.72453"
         r="11.90625" />
      <circle
         style="fill:#f4cf86;fill-opacity:1;stroke:#2b0000;stroke-width:6;stroke-linecap:round;stroke-linejoin:round;stroke-miterlimit:4;stroke-dasharray:none;stroke-opacity:1;paint-order:stroke fill markers;stop-color:#000000"
         id="path1144-3"
         cx="249.99792"
         cy="152.64122"
         r="11.90625" />
      <circle
         style="fill:#f4cf86;fill-opacity:1;stroke:#2b0000;stroke-width:6;stroke-linecap:round;stroke-linejoin:round;stroke-miterlimit:4;stroke-dasharray:none;stroke-opacity:1;paint-order:stroke fill markers;stop-color:#000000"
         id="path1144"
         cx="117.70624"
         cy="176.45372"
         r="11.90625" />
    </g>
  </g>
</svg>
