<?xml version="1.0" encoding="UTF-8" standalone="no"?>
<!-- Created with Inkscape (http://www.inkscape.org/) -->

<svg
   width="198mm"
   height="198mm"
   viewBox="0 0 198 198"
   version="1.1"
   id="svg827"
   inkscape:version="1.1.2 (0a00cf5339, 2022-02-04)"
   sodipodi:docname="smalllogo.svg"
   inkscape:export-filename="favicon.png"
   inkscape:export-xdpi="3.848485"
   inkscape:export-ydpi="3.848485"
   xmlns:inkscape="http://www.inkscape.org/namespaces/inkscape"
   xmlns:sodipodi="http://sodipodi.sourceforge.net/DTD/sodipodi-0.dtd"
   xmlns="http://www.w3.org/2000/svg"
   xmlns:svg="http://www.w3.org/2000/svg">
  <sodipodi:namedview
     id="namedview829"
     pagecolor="#ffffff"
     bordercolor="#666666"
     borderopacity="1.0"
     inkscape:pageshadow="2"
     inkscape:pageopacity="0.0"
     inkscape:pagecheckerboard="0"
     inkscape:document-units="mm"
     showgrid="true"
     inkscape:zoom="0.87721746"
     inkscape:cx="501.586"
     inkscape:cy="422.35821"
     inkscape:window-width="2560"
     inkscape:window-height="1521"
     inkscape:window-x="0"
     inkscape:window-y="0"
     inkscape:window-maximized="1"
     inkscape:current-layer="layer1">
    <inkscape:grid
       type="xygrid"
       id="grid1120" />
  </sodipodi:namedview>
  <defs
     id="defs824" />
  <g
     inkscape:label="Layer 1"
     inkscape:groupmode="layer"
     id="layer1">
    <g
       id="g1296">
      <g
         id="g2598"
         transform="matrix(1.0972394,0,0,1.0972394,-226.19008,-93.349994)"
         style="stroke-width:0.911377">
        <path
           style="fill:none;fill-opacity:1;stroke:#a8d8f7;stroke-width:2.73415;stroke-linecap:butt;stroke-linejoin:miter;stroke-miterlimit:4;stroke-dasharray:none;stroke-opacity:1"
           d="m 226.28883,104.68494 11.73173,11.73173 h 21.27111"
           id="path5528" />
        <path
           style="fill:none;fill-opacity:1;stroke:#a8d8f7;stroke-width:2.73415;stroke-linecap:butt;stroke-linejoin:miter;stroke-miterlimit:4;stroke-dasharray:none;stroke-opacity:1"
           d="m 366.49978,104.68494 -11.73173,11.73173 h -21.27111"
           id="path5528-6" />
        <path
           style="fill:none;fill-opacity:1;stroke:#a8d8f7;stroke-width:2.73415;stroke-linecap:butt;stroke-linejoin:miter;stroke-miterlimit:4;stroke-dasharray:none;stroke-opacity:1"
           d="M 366.49978,183.80236 354.76805,172.07061 H 333.49694"
           id="path5528-6-2" />
        <path
           style="fill:none;fill-opacity:1;stroke:#a8d8f7;stroke-width:2.73415;stroke-linecap:butt;stroke-linejoin:miter;stroke-miterlimit:4;stroke-dasharray:none;stroke-opacity:1"
           d="m 226.28881,183.80236 11.73174,-11.73175 h 21.27112"
           id="path5528-6-2-6" />
        <ellipse
           style="fill:#a8d8f7;fill-opacity:1;stroke:#a8d8f7;stroke-width:5.46828;stroke-linecap:round;stroke-linejoin:round;stroke-opacity:1;paint-order:stroke fill markers;stop-color:#000000"
           id="path4087-9"
           cx="363.17905"
           cy="105.28587"
           rx="5.7979307"
           ry="6.1279621" />
        <path
           style="fill:none;fill-opacity:1;stroke:#a8d8f7;stroke-width:2.73415;stroke-linecap:butt;stroke-linejoin:miter;stroke-miterlimit:4;stroke-dasharray:none;stroke-opacity:1"
           d="M 218.47878,146.09877 H 374.30983"
           id="path6028" />
        <path
           id="path3539"
           style="fill:#a8d8f7;fill-opacity:1;stroke:#a8d8f7;stroke-width:5.46828;stroke-linecap:round;stroke-linejoin:round;stroke-opacity:1;paint-order:stroke fill markers;stop-color:#000000"
           d="m 351.36591,145.41643 c 0,20.03103 -21.57923,37.78497 -28.99976,48.91576 -7.42052,11.13079 -15.96706,25.38125 -26.29601,25.38125 -9.10039,0 -18.22715,-14.25046 -25.64767,-25.38125 -7.42053,-11.13079 -28.99976,-27.65618 -28.99976,-48.91576 0,-30.35998 24.61163,-54.971604 54.97159,-54.971607 30.35998,-6e-6 54.97161,24.611617 54.97161,54.971607 z"
           sodipodi:nodetypes="szszsss" />
        <circle
           style="fill:#a8d8f7;fill-opacity:1;stroke:#a8d8f7;stroke-width:5.46828;stroke-linecap:round;stroke-linejoin:round;stroke-opacity:1;paint-order:stroke fill markers;stop-color:#000000"
           id="path3983"
           cx="295.53784"
           cy="250.47099"
           r="12.026527" />
        <rect
           style="fill:#a8d8f7;fill-opacity:1;stroke:#a8d8f7;stroke-width:5.46828;stroke-linecap:round;stroke-linejoin:round;stroke-opacity:1;paint-order:stroke fill markers;stop-color:#000000"
           id="rect3643"
           width="55.671665"
           height="17.666126"
           x="268.55847"
           y="207.76073"
           rx="5.7793479"
           ry="5.9114323" />
        <rect
           style="fill:#a8d8f7;fill-opacity:1;stroke:#a8d8f7;stroke-width:5.46828;stroke-linecap:round;stroke-linejoin:round;stroke-opacity:1;paint-order:stroke fill markers;stop-color:#000000"
           id="rect3643-6"
           width="55.671665"
           height="17.666126"
           x="268.55847"
           y="230.02229"
           rx="5.7793479"
           ry="5.9114323" />
        <ellipse
           style="fill:#a8d8f7;fill-opacity:1;stroke:#a8d8f7;stroke-width:5.46828;stroke-linecap:round;stroke-linejoin:round;stroke-opacity:1;paint-order:stroke fill markers;stop-color:#000000"
           id="path4087"
           cx="229.60957"
           cy="105.28587"
           rx="5.7979307"
           ry="6.1279621" />
        <ellipse
           style="fill:#a8d8f7;fill-opacity:1;stroke:#a8d8f7;stroke-width:5.46828;stroke-linecap:round;stroke-linejoin:round;stroke-opacity:1;paint-order:stroke fill markers;stop-color:#000000"
           id="path4087-1"
           cx="214.76851"
           cy="146.09877"
           rx="5.7979307"
           ry="6.1279621" />
        <ellipse
           style="fill:#a8d8f7;fill-opacity:1;stroke:#a8d8f7;stroke-width:5.46828;stroke-linecap:round;stroke-linejoin:round;stroke-opacity:1;paint-order:stroke fill markers;stop-color:#000000"
           id="path4087-2"
           cx="225.89929"
           cy="183.2014"
           rx="5.7979307"
           ry="6.1279621" />
        <ellipse
           style="fill:#a8d8f7;fill-opacity:1;stroke:#a8d8f7;stroke-width:5.46828;stroke-linecap:round;stroke-linejoin:round;stroke-opacity:1;paint-order:stroke fill markers;stop-color:#000000"
           id="path4087-7"
           cx="363.17905"
           cy="183.2014"
           rx="5.7979307"
           ry="6.1279621" />
        <ellipse
           style="fill:#a8d8f7;fill-opacity:1;stroke:#a8d8f7;stroke-width:5.46828;stroke-linecap:round;stroke-linejoin:round;stroke-opacity:1;paint-order:stroke fill markers;stop-color:#000000"
           id="path4087-0"
           cx="378.02005"
           cy="146.09877"
           rx="5.7979307"
           ry="6.1279621" />
      </g>
      <path
         style="fill:none;stroke:#000000;stroke-width:3;stroke-linecap:butt;stroke-linejoin:miter;stroke-opacity:1;stroke-miterlimit:4;stroke-dasharray:none"
         d="M 26.458333,92.604166 23.8125,66.145832"
         id="path1402" />
      <path
         style="fill:none;stroke:#000000;stroke-width:3;stroke-linecap:butt;stroke-linejoin:miter;stroke-miterlimit:4;stroke-dasharray:none;stroke-opacity:1"
         d="M 29.104167,44.979167 52.916666,23.8125"
         id="path1404"
         sodipodi:nodetypes="cc" />
      <path
         style="fill:none;stroke:#000000;stroke-width:3;stroke-linecap:butt;stroke-linejoin:miter;stroke-opacity:1;stroke-miterlimit:4;stroke-dasharray:none"
         d="M 74.083332,15.875 142.875,26.458333"
         id="path1406" />
      <path
         style="fill:none;stroke:#000000;stroke-width:3;stroke-linecap:butt;stroke-linejoin:miter;stroke-miterlimit:4;stroke-dasharray:none;stroke-opacity:1"
         d="m 158.75,42.333333 18.52083,52.916666"
         id="path1408"
         sodipodi:nodetypes="cc" />
      <path
         style="fill:none;stroke:#000000;stroke-width:3;stroke-linecap:butt;stroke-linejoin:miter;stroke-opacity:1;stroke-miterlimit:4;stroke-dasharray:none"
         d="M 169.33333,108.47917 100.54167,82.020832"
         id="path1410" />
      <path
         style="fill:none;stroke:#000000;stroke-width:3;stroke-linecap:butt;stroke-linejoin:miter;stroke-opacity:1;stroke-miterlimit:4;stroke-dasharray:none"
         d="M 37.041666,100.54167 100.54167,82.020832"
         id="path1412" />
      <path
         style="fill:none;stroke:#000000;stroke-width:3;stroke-linecap:butt;stroke-linejoin:miter;stroke-opacity:1;stroke-miterlimit:4;stroke-dasharray:none"
         d="M 66.145832,26.458333 100.54167,82.020832"
         id="path1414" />
      <path
         id="rect1536"
         style="fill:#a8d8f7;stroke:none;stroke-width:3;stroke-linecap:round;stroke-linejoin:round;paint-order:stroke fill markers;stop-color:#000000;fill-opacity:1"
         d="m 64.822918,71.4375 c 21.972705,-15.725131 44.078412,-3.896989 66.145832,0 2.16519,0.382361 3.96875,1.770062 3.96875,3.96875 v 21.166668 c 0,2.198687 -1.77006,3.968752 -3.96875,3.968752 H 64.822918 c -2.198687,0 -3.96875,-1.770065 -3.96875,-3.968752 V 75.40625 c 0,-2.198688 2.180773,-2.689155 3.96875,-3.96875 z"
         sodipodi:nodetypes="sssssssss" />
      <g
         id="g14"
         transform="matrix(0.32934052,0,0,0.32934052,21.775704,44.149958)"
         style="stroke-width:0.803371">
        <path
           d="m 167,142 c 4.142,0 7.5,-3.358 7.5,-7.5 v -8 c 0,-4.142 -3.358,-7.5 -7.5,-7.5 -4.142,0 -7.5,3.358 -7.5,7.5 v 8 c 0,4.142 3.357,7.5 7.5,7.5 z"
           id="path2"
           style="stroke-width:0.803371" />
        <path
           d="m 295,142 c 4.142,0 7.5,-3.358 7.5,-7.5 v -8 c 0,-4.142 -3.358,-7.5 -7.5,-7.5 -4.142,0 -7.5,3.358 -7.5,7.5 v 8 c 0,4.142 3.357,7.5 7.5,7.5 z"
           id="path4"
           style="stroke-width:0.803371" />
        <path
           d="m 382.5,336.234 v -67.468 c 9.29,-3.138 16,-11.93 16,-22.266 0,-12.958 -10.542,-23.5 -23.5,-23.5 h -34.11 c 10.826,-10.135 17.61,-24.536 17.61,-40.5 v -80 C 358.5,71.897 333.603,47 303,47 H 278.5 V 26.886 c 4.188,-2.546 7,-7.138 7,-12.386 C 285.5,6.505 278.995,0 271,0 c -7.995,0 -14.5,6.505 -14.5,14.5 0,5.248 2.812,9.84 7,12.386 V 47 h -65 V 26.886 c 4.188,-2.546 7,-7.138 7,-12.386 C 205.5,6.505 198.995,0 191,0 c -7.995,0 -14.5,6.505 -14.5,14.5 0,5.248 2.812,9.84 7,12.386 V 47 H 159 c -30.603,0 -55.5,24.897 -55.5,55.5 v 80 c 0,15.964 6.784,30.365 17.61,40.5 H 87 c -12.958,0 -23.5,10.542 -23.5,23.5 0,10.336 6.71,19.128 16,22.266 v 67.468 c -9.29,3.138 -16,11.93 -16,22.266 v 16 c 0,4.142 3.358,7.5 7.5,7.5 4.142,0 7.5,-3.358 7.5,-7.5 v -16 c 0,-4.687 3.813,-8.5 8.5,-8.5 4.687,0 8.5,3.813 8.5,8.5 v 16 c 0,4.142 3.358,7.5 7.5,7.5 4.142,0 7.5,-3.358 7.5,-7.5 v -16 c 0,-10.336 -6.71,-19.128 -16,-22.266 V 270 h 33 v 72.5 c 0,12.958 10.542,23.5 23.5,23.5 h 9.409 c 1.245,5.075 3.72,9.669 7.093,13.449 0,0.017 -0.003,0.034 -0.003,0.051 V 415 H 159 c -21.78,0 -39.5,17.72 -39.5,39.5 0,4.142 3.358,7.5 7.5,7.5 h 88 c 4.142,0 7.5,-3.358 7.5,-7.5 v -32 c 0,-4.142 -3.358,-7.5 -7.5,-7.5 h -0.5 v -35.5 c 0,-0.017 -0.002,-0.034 -0.003,-0.051 3.374,-3.78 5.849,-8.375 7.093,-13.449 h 18.819 c 1.245,5.075 3.72,9.669 7.093,13.449 0,0.017 -0.003,0.034 -0.003,0.051 V 415 H 247 c -4.142,0 -7.5,3.358 -7.5,7.5 v 32 c 0,4.142 3.358,7.5 7.5,7.5 h 88 c 4.142,0 7.5,-3.358 7.5,-7.5 0,-21.78 -17.72,-39.5 -39.5,-39.5 h -8.5 v -35.5 c 0,-0.017 -0.002,-0.034 -0.003,-0.051 3.374,-3.78 5.849,-8.375 7.093,-13.449 H 311 c 12.958,0 23.5,-10.542 23.5,-23.5 V 270 h 33 v 66.234 c -9.29,3.138 -16,11.93 -16,22.266 v 16 c 0,4.142 3.358,7.5 7.5,7.5 4.142,0 7.5,-3.358 7.5,-7.5 v -16 c 0,-4.687 3.813,-8.5 8.5,-8.5 4.687,0 8.5,3.813 8.5,8.5 v 16 c 0,4.142 3.358,7.5 7.5,7.5 4.142,0 7.5,-3.358 7.5,-7.5 v -16 c 0,-10.336 -6.71,-19.128 -16,-22.266 z M 375,255 c -4.687,0 -8.5,-3.813 -8.5,-8.5 0,-4.687 3.813,-8.5 8.5,-8.5 4.687,0 8.5,3.813 8.5,8.5 0,4.687 -3.813,8.5 -8.5,8.5 z M 118.5,102.5 C 118.5,80.168 136.668,62 159,62 h 144 c 22.332,0 40.5,18.168 40.5,40.5 v 48 c 0,8.239 -16.171,16.553 -30.019,21.169 C 291.56,178.976 262.268,183 231,183 199.732,183 170.439,178.976 148.519,171.669 134.671,167.053 118.5,158.739 118.5,150.5 Z m 0,80 v -8.518 c 5.971,4.143 14.148,8.208 25.275,11.918 23.41,7.803 54.387,12.1 87.225,12.1 32.838,0 63.815,-4.297 87.225,-12.101 11.128,-3.709 19.304,-7.775 25.275,-11.918 v 8.518 c 0,22.332 -18.168,40.5 -40.5,40.5 H 159 C 136.668,223 118.5,204.832 118.5,182.5 Z M 87,238 c 4.687,0 8.5,3.813 8.5,8.5 0,4.687 -3.813,8.5 -8.5,8.5 -4.687,0 -8.5,-3.813 -8.5,-8.5 0,-4.687 3.813,-8.5 8.5,-8.5 z m 21.903,17 c 1.027,-2.638 1.597,-5.503 1.597,-8.5 0,-2.997 -0.57,-5.862 -1.597,-8.5 H 127.5 v 17 z M 207.5,447 h -71.826 c 3.175,-9.853 12.432,-17 23.326,-17 h 48.5 z m -25,-32 v -26.175 c 2.706,0.76 5.555,1.175 8.5,1.175 2.945,0 5.794,-0.415 8.5,-1.175 V 415 Z m 8.5,-40 c -6.396,0 -11.942,-3.666 -14.679,-9 h 29.357 c -2.737,5.334 -8.282,9 -14.678,9 z m 135.326,72 H 254.5 V 430 H 303 c 10.894,0 20.151,7.147 23.326,17 z M 262.5,415 v -26.175 c 2.706,0.76 5.555,1.175 8.5,1.175 2.945,0 5.794,-0.415 8.5,-1.175 V 415 Z m 8.5,-40 c -6.396,0 -11.942,-3.666 -14.679,-9 h 29.357 c -2.737,5.334 -8.282,9 -14.678,9 z m 48.5,-32.5 c 0,4.687 -3.813,8.5 -8.5,8.5 H 151 c -4.687,0 -8.5,-3.813 -8.5,-8.5 V 235.496 c 5.215,1.627 10.757,2.504 16.5,2.504 h 144 c 5.743,0 11.286,-0.877 16.5,-2.504 z m 15,-104.5 h 18.597 c -1.027,2.638 -1.597,5.503 -1.597,8.5 0,2.997 0.57,5.862 1.597,8.5 H 334.5 Z"
           id="path6"
           style="stroke-width:0.803371" />
        <path
           d="m 231,263 c -17.369,0 -31.5,14.131 -31.5,31.5 0,17.369 14.13,31.5 31.5,31.5 17.37,0 31.5,-14.131 31.5,-31.5 0,-17.369 -14.131,-31.5 -31.5,-31.5 z m 0,48 c -9.098,0 -16.5,-7.402 -16.5,-16.5 0,-9.098 7.401,-16.5 16.5,-16.5 9.099,0 16.5,7.402 16.5,16.5 0,9.098 -7.402,16.5 -16.5,16.5 z"
           id="path8"
           style="stroke-width:0.803371" />
        <path
           d="m 175,271 c -4.142,0 -7.5,3.358 -7.5,7.5 v 32 c 0,4.142 3.358,7.5 7.5,7.5 4.142,0 7.5,-3.358 7.5,-7.5 v -32 c 0,-4.142 -3.358,-7.5 -7.5,-7.5 z"
           id="path10"
           style="stroke-width:0.803371" />
        <path
           d="m 287,271 c -4.142,0 -7.5,3.358 -7.5,7.5 v 32 c 0,4.142 3.358,7.5 7.5,7.5 4.142,0 7.5,-3.358 7.5,-7.5 v -32 c 0,-4.142 -3.358,-7.5 -7.5,-7.5 z"
           id="path12"
           style="stroke-width:0.803371" />
      </g>
      <circle
         style="fill:#f4cf86;stroke:#2b0000;stroke-width:6;stroke-linecap:round;stroke-linejoin:round;stroke-miterlimit:4;stroke-dasharray:none;stroke-opacity:1;paint-order:stroke fill markers;stop-color:#000000;fill-opacity:1"
         id="path1144"
         cx="21.904108"
         cy="54.899097"
         r="11.90625" />
      <circle
         style="fill:#f4cf86;stroke:#2b0000;stroke-width:6;stroke-linecap:round;stroke-linejoin:round;stroke-miterlimit:4;stroke-dasharray:none;stroke-opacity:1;paint-order:stroke fill markers;stop-color:#000000;fill-opacity:1"
         id="path1144-9"
         cx="61.591606"
         cy="15.211596"
         r="11.90625" />
      <circle
         style="fill:#f4cf86;stroke:#2b0000;stroke-width:6;stroke-linecap:round;stroke-linejoin:round;stroke-miterlimit:4;stroke-dasharray:none;stroke-opacity:1;paint-order:stroke fill markers;stop-color:#000000;fill-opacity:1"
         id="path1144-3"
         cx="154.19579"
         cy="31.086596"
         r="11.90625" />
      <circle
         style="fill:#f4cf86;stroke:#2b0000;stroke-width:6;stroke-linecap:round;stroke-linejoin:round;stroke-miterlimit:4;stroke-dasharray:none;stroke-opacity:1;paint-order:stroke fill markers;stop-color:#000000;fill-opacity:1"
         id="path1144-6"
         cx="180.65411"
         cy="105.16993"
         r="11.90625" />
      <circle
         style="fill:#f4cf86;stroke:#2b0000;stroke-width:6;stroke-linecap:round;stroke-linejoin:round;stroke-miterlimit:4;stroke-dasharray:none;stroke-opacity:1;paint-order:stroke fill markers;stop-color:#000000;fill-opacity:1"
         id="path1144-0"
         cx="27.195774"
         cy="105.16993"
         r="11.90625" />
    </g>
  </g>
</svg>
