<?xml version="1.0" encoding="UTF-8" standalone="no"?>
<!-- Created with Inkscape (http://www.inkscape.org/) -->

<svg
   width="132mm"
   height="132mm"
   viewBox="0 0 132 132"
   version="1.1"
   id="svg3209"
   inkscape:version="1.1.2 (0a00cf5339, 2022-02-04)"
   sodipodi:docname="store.svg"
   inkscape:export-filename="store.png"
   inkscape:export-xdpi="38.48"
   inkscape:export-ydpi="38.48"
   xmlns:inkscape="http://www.inkscape.org/namespaces/inkscape"
   xmlns:sodipodi="http://sodipodi.sourceforge.net/DTD/sodipodi-0.dtd"
   xmlns="http://www.w3.org/2000/svg"
   xmlns:svg="http://www.w3.org/2000/svg">
  <sodipodi:namedview
     id="namedview3211"
     pagecolor="#ffffff"
     bordercolor="#666666"
     borderopacity="1.0"
     inkscape:pageshadow="2"
     inkscape:pageopacity="0.0"
     inkscape:pagecheckerboard="0"
     inkscape:document-units="mm"
     showgrid="true"
     inkscape:snap-bbox="true"
     inkscape:object-paths="true"
     inkscape:snap-intersection-paths="true"
     inkscape:snap-smooth-nodes="true"
     inkscape:snap-midpoints="false"
     inkscape:snap-object-midpoints="true"
     inkscape:snap-center="true"
     inkscape:snap-others="false"
     inkscape:snap-nodes="true"
     inkscape:object-nodes="true"
     inkscape:snap-bbox-midpoints="true"
     inkscape:zoom="1.0337501"
     inkscape:cx="169.28656"
     inkscape:cy="255.86455"
     inkscape:window-width="2560"
     inkscape:window-height="1521"
     inkscape:window-x="0"
     inkscape:window-y="0"
     inkscape:window-maximized="1"
     inkscape:current-layer="layer1"
     inkscape:snap-global="false"
     fit-margin-top="0"
     fit-margin-left="0"
     fit-margin-right="0"
     fit-margin-bottom="0">
    <inkscape:grid
       type="xygrid"
       id="grid5738"
       spacingx="0.26458333"
       spacingy="0.26458333"
       originx="-53.719585"
       originy="-36.687495" />
  </sodipodi:namedview>
  <defs
     id="defs3206" />
  <g
     inkscape:label="Layer 1"
     inkscape:groupmode="layer"
     id="layer1"
     transform="translate(-53.719585,-36.687495)">
    <path
       style="fill:none;stroke:#000000;stroke-width:3;stroke-linecap:butt;stroke-linejoin:miter;stroke-miterlimit:4;stroke-dasharray:none;stroke-opacity:1"
       d="m 69.598609,51.4298 8.366035,8.366034 h 15.168689"
       id="path5528" />
    <path
       style="fill:none;stroke:#000000;stroke-width:3;stroke-linecap:butt;stroke-linejoin:miter;stroke-miterlimit:4;stroke-dasharray:none;stroke-opacity:1"
       d="m 169.58473,51.4298 -8.36604,8.366034 H 146.05"
       id="path5528-6" />
    <path
       style="fill:none;stroke:#000000;stroke-width:3;stroke-linecap:butt;stroke-linejoin:miter;stroke-miterlimit:4;stroke-dasharray:none;stroke-opacity:1"
       d="m 169.58473,107.84939 -8.36604,-8.366057 H 146.05"
       id="path5528-6-2" />
    <path
       style="fill:none;stroke:#000000;stroke-width:3;stroke-linecap:butt;stroke-linejoin:miter;stroke-miterlimit:4;stroke-dasharray:none;stroke-opacity:1"
       d="m 69.598603,107.84939 8.36604,-8.366057 h 15.16869"
       id="path5528-6-2-6" />
    <ellipse
       style="fill:#bfbfbf;fill-opacity:1;stroke:#000000;stroke-width:6.00001;stroke-linecap:round;stroke-linejoin:round;paint-order:stroke fill markers;stop-color:#000000"
       id="path4087-9"
       cx="167.21666"
       cy="51.858334"
       rx="4.1345739"
       ry="4.3699231" />
    <path
       style="fill:none;stroke:#000000;stroke-width:3;stroke-linecap:butt;stroke-linejoin:miter;stroke-miterlimit:4;stroke-dasharray:none;stroke-opacity:1"
       d="M 64.029166,80.9625 H 175.15417"
       id="path6028" />
    <path
       id="path3539"
       style="fill:#a8d8f7;fill-opacity:1;stroke:#000000;stroke-width:6.00001;stroke-linecap:round;stroke-linejoin:round;paint-order:stroke fill markers;stop-color:#000000"
       d="m 158.79258,80.475913 c 0,14.284369 -15.38841,26.944927 -20.68008,34.882427 -5.29166,7.9375 -11.3863,18.09967 -18.752,18.09967 -6.4896,0 -12.998,-10.16217 -18.28966,-18.09967 -5.291674,-7.9375 -20.68008,-19.721964 -20.680081,-34.882427 -2e-6,-21.650064 17.550844,-39.20091 39.200901,-39.200912 21.65007,-4e-6 39.20092,17.550843 39.20092,39.200912 z"
       sodipodi:nodetypes="szszsss" />
    <circle
       style="fill:#bfbfbf;fill-opacity:1;stroke:#000000;stroke-width:6.00001;stroke-linecap:round;stroke-linejoin:round;paint-order:stroke fill markers;stop-color:#000000"
       id="path3983"
       cx="118.98093"
       cy="155.39156"
       r="8.5762606" />
    <rect
       style="fill:#bfbfbf;fill-opacity:1;stroke:#000000;stroke-width:6.00001;stroke-linecap:round;stroke-linejoin:round;paint-order:stroke fill markers;stop-color:#000000"
       id="rect3643"
       width="39.70013"
       height="12.597926"
       x="99.7416"
       y="124.93436"
       rx="4.1213222"
       ry="4.2155132" />
    <rect
       style="fill:#bfbfbf;fill-opacity:1;stroke:#000000;stroke-width:6.00001;stroke-linecap:round;stroke-linejoin:round;paint-order:stroke fill markers;stop-color:#000000"
       id="rect3643-6"
       width="39.70013"
       height="12.597926"
       x="99.7416"
       y="140.80934"
       rx="4.1213222"
       ry="4.2155132" />
    <ellipse
       style="fill:#bfbfbf;fill-opacity:1;stroke:#000000;stroke-width:6.00001;stroke-linecap:round;stroke-linejoin:round;paint-order:stroke fill markers;stop-color:#000000"
       id="path4087"
       cx="71.966667"
       cy="51.858334"
       rx="4.1345739"
       ry="4.3699231" />
    <ellipse
       style="fill:#bfbfbf;fill-opacity:1;stroke:#000000;stroke-width:6.00001;stroke-linecap:round;stroke-linejoin:round;paint-order:stroke fill markers;stop-color:#000000"
       id="path4087-1"
       cx="61.383331"
       cy="80.962502"
       rx="4.1345739"
       ry="4.3699231" />
    <ellipse
       style="fill:#bfbfbf;fill-opacity:1;stroke:#000000;stroke-width:6.00001;stroke-linecap:round;stroke-linejoin:round;paint-order:stroke fill markers;stop-color:#000000"
       id="path4087-2"
       cx="69.320831"
       cy="107.42084"
       rx="4.1345739"
       ry="4.3699231" />
    <ellipse
       style="fill:#bfbfbf;fill-opacity:1;stroke:#000000;stroke-width:6.00001;stroke-linecap:round;stroke-linejoin:round;paint-order:stroke fill markers;stop-color:#000000"
       id="path4087-7"
       cx="167.21666"
       cy="107.42084"
       rx="4.1345739"
       ry="4.3699231" />
    <ellipse
       style="fill:#bfbfbf;fill-opacity:1;stroke:#000000;stroke-width:6.00001;stroke-linecap:round;stroke-linejoin:round;paint-order:stroke fill markers;stop-color:#000000"
       id="path4087-0"
       cx="177.79999"
       cy="80.962502"
       rx="4.1345739"
       ry="4.3699231" />
    <g
       id="g5853"
       transform="matrix(0.88430757,0,0,0.88620439,13.13751,86.449009)"
       style="stroke-width:1.12962">
      <path
         id="rect4287-7-3"
         style="fill:#bfbfbf;fill-opacity:1;stroke:#000000;stroke-width:3.38885;stroke-linecap:square;stroke-linejoin:miter;stroke-miterlimit:4;stroke-dasharray:none;stroke-opacity:1;stop-color:#000000"
         d="m 96.539018,-3.236359 v 17.197916 c -2.65e-4,5.824458 10.632772,10.546183 23.749442,10.546127 13.11648,-7.1e-5 23.7493,-4.721759 23.74894,-10.546127 l -0.0486,-17.197916 z"
         sodipodi:nodetypes="cccccc" />
      <path
         id="rect4287-7-2"
         style="fill:#bfbfbf;fill-opacity:1;stroke:#000000;stroke-width:3.38885;stroke-linecap:square;stroke-linejoin:miter;stroke-miterlimit:4;stroke-dasharray:none;stroke-opacity:1;stop-color:#000000"
         d="M 96.539018,-14.364407 V 2.8335093 c -2.65e-4,5.8244579 10.632782,10.5461837 23.749462,10.5461287 13.11647,-7.2e-5 23.74929,-4.7217608 23.74894,-10.5461287 l -0.0486,-17.1979163 z"
         sodipodi:nodetypes="cccccc" />
      <path
         id="rect4287-7"
         style="fill:#bfbfbf;fill-opacity:1;stroke:#000000;stroke-width:3.38885;stroke-linecap:square;stroke-linejoin:miter;stroke-miterlimit:4;stroke-dasharray:none;stroke-opacity:1;stop-color:#000000"
         d="m 96.53902,-25.492455 v 17.1979173 c -2.64e-4,5.824458 10.63278,10.5461831 23.74946,10.5461275 13.11647,-7.14e-5 23.74929,-4.7217594 23.74893,-10.5461275 l -0.0486,-17.1979173 z"
         sodipodi:nodetypes="cccccc" />
      <path
         id="rect4287-7-0"
         style="fill:#bfbfbf;fill-opacity:1;stroke:#000000;stroke-width:3.38885;stroke-linecap:square;stroke-linejoin:miter;stroke-miterlimit:4;stroke-dasharray:none;stroke-opacity:1;stop-color:#000000"
         d="m 96.539018,-29.004092 v 10.088984 c -2.65e-4,5.544187 10.632772,10.0387045 23.749452,10.0386515 13.11648,-6.8e-5 23.7493,-4.4945505 23.74894,-10.0386515 l -0.0486,-10.088984 z"
         sodipodi:nodetypes="cccccc" />
      <ellipse
         style="fill:#bfbfbf;fill-opacity:1;stroke:#000000;stroke-width:3.38885;stroke-linecap:butt;stroke-linejoin:round;stroke-miterlimit:4;stroke-dasharray:none;stroke-opacity:1;stop-color:#000000"
         id="path4699-2"
         cx="120.28825"
         cy="-30.550344"
         rx="23.749233"
         ry="10.545841" />
    </g>
  </g>
</svg>
